-- Merging decision tree log ---
provider#android.support.v4.content.FileProvider
INJECTED from E:\CPMA Dev\camera_app\platforms\android\app\src\main\AndroidManifest.xml:12:9-14:20
	android:grantUriPermissions
		ADDED from E:\CPMA Dev\camera_app\platforms\android\app\src\main\AndroidManifest.xml:12:92-126
	android:authorities
		INJECTED from E:\CPMA Dev\camera_app\platforms\android\app\src\main\AndroidManifest.xml
		ADDED from E:\CPMA Dev\camera_app\platforms\android\app\src\main\AndroidManifest.xml:12:19-66
	android:exported
		ADDED from E:\CPMA Dev\camera_app\platforms\android\app\src\main\AndroidManifest.xml:12:67-91
	android:name
		ADDED from E:\CPMA Dev\camera_app\platforms\android\app\src\main\AndroidManifest.xml:12:127-181
manifest
ADDED from E:\CPMA Dev\camera_app\platforms\android\app\src\main\AndroidManifest.xml:2:1-18:12
INJECTED from E:\CPMA Dev\camera_app\platforms\android\app\src\main\AndroidManifest.xml:2:1-18:12
INJECTED from E:\CPMA Dev\camera_app\platforms\android\app\src\main\AndroidManifest.xml:2:1-18:12
INJECTED from E:\CPMA Dev\camera_app\platforms\android\app\src\main\AndroidManifest.xml:2:1-18:12
MERGED from [com.android.support:support-v4:24.1.1] C:\Users\Asppire 5742\.gradle\caches\transforms-1\files-1.1\support-v4-24.1.1.aar\ccccff249035db4f6a0ea8e1916bdb12\AndroidManifest.xml:17:1-27:12
MERGED from [:CordovaLib] E:\CPMA Dev\camera_app\platforms\android\CordovaLib\build\intermediates\manifests\full\debug\AndroidManifest.xml:20:1-27:12
INJECTED from E:\CPMA Dev\camera_app\platforms\android\app\src\main\AndroidManifest.xml:2:1-18:12
INJECTED from E:\CPMA Dev\camera_app\platforms\android\app\src\main\AndroidManifest.xml:2:1-18:12
INJECTED from E:\CPMA Dev\camera_app\platforms\android\app\src\main\AndroidManifest.xml:2:1-18:12
	package
		ADDED from E:\CPMA Dev\camera_app\platforms\android\app\src\main\AndroidManifest.xml:2:102-135
		INJECTED from E:\CPMA Dev\camera_app\platforms\android\app\src\main\AndroidManifest.xml
		INJECTED from E:\CPMA Dev\camera_app\platforms\android\app\src\main\AndroidManifest.xml
	android:versionName
		ADDED from E:\CPMA Dev\camera_app\platforms\android\app\src\main\AndroidManifest.xml:2:74-101
		INJECTED from E:\CPMA Dev\camera_app\platforms\android\app\src\main\AndroidManifest.xml
		INJECTED from E:\CPMA Dev\camera_app\platforms\android\app\src\main\AndroidManifest.xml
	android:hardwareAccelerated
		ADDED from E:\CPMA Dev\camera_app\platforms\android\app\src\main\AndroidManifest.xml:2:11-45
	xmlns:android
		ADDED from E:\CPMA Dev\camera_app\platforms\android\app\src\main\AndroidManifest.xml:2:136-194
	android:versionCode
		ADDED from E:\CPMA Dev\camera_app\platforms\android\app\src\main\AndroidManifest.xml:2:46-73
		INJECTED from E:\CPMA Dev\camera_app\platforms\android\app\src\main\AndroidManifest.xml
		INJECTED from E:\CPMA Dev\camera_app\platforms\android\app\src\main\AndroidManifest.xml
supports-screens
ADDED from E:\CPMA Dev\camera_app\platforms\android\app\src\main\AndroidManifest.xml:3:5-191
	android:largeScreens
		ADDED from E:\CPMA Dev\camera_app\platforms\android\app\src\main\AndroidManifest.xml:3:49-76
	android:smallScreens
		ADDED from E:\CPMA Dev\camera_app\platforms\android\app\src\main\AndroidManifest.xml:3:132-159
	android:normalScreens
		ADDED from E:\CPMA Dev\camera_app\platforms\android\app\src\main\AndroidManifest.xml:3:77-105
	android:xlargeScreens
		ADDED from E:\CPMA Dev\camera_app\platforms\android\app\src\main\AndroidManifest.xml:3:160-188
	android:resizeable
		ADDED from E:\CPMA Dev\camera_app\platforms\android\app\src\main\AndroidManifest.xml:3:106-131
	android:anyDensity
		ADDED from E:\CPMA Dev\camera_app\platforms\android\app\src\main\AndroidManifest.xml:3:23-48
uses-permission#android.permission.INTERNET
ADDED from E:\CPMA Dev\camera_app\platforms\android\app\src\main\AndroidManifest.xml:4:5-67
	android:name
		ADDED from E:\CPMA Dev\camera_app\platforms\android\app\src\main\AndroidManifest.xml:4:22-64
application
ADDED from E:\CPMA Dev\camera_app\platforms\android\app\src\main\AndroidManifest.xml:5:5-15:19
MERGED from [com.android.support:support-v4:24.1.1] C:\Users\Asppire 5742\.gradle\caches\transforms-1\files-1.1\support-v4-24.1.1.aar\ccccff249035db4f6a0ea8e1916bdb12\AndroidManifest.xml:25:5-20
MERGED from [com.android.support:support-v4:24.1.1] C:\Users\Asppire 5742\.gradle\caches\transforms-1\files-1.1\support-v4-24.1.1.aar\ccccff249035db4f6a0ea8e1916bdb12\AndroidManifest.xml:25:5-20
	android:supportsRtl
		ADDED from E:\CPMA Dev\camera_app\platforms\android\app\src\main\AndroidManifest.xml:5:114-140
	android:label
		ADDED from E:\CPMA Dev\camera_app\platforms\android\app\src\main\AndroidManifest.xml:5:81-113
	android:hardwareAccelerated
		ADDED from E:\CPMA Dev\camera_app\platforms\android\app\src\main\AndroidManifest.xml:5:18-52
	android:icon
		ADDED from E:\CPMA Dev\camera_app\platforms\android\app\src\main\AndroidManifest.xml:5:53-80
activity#io.cordova.hellocordova.MainActivity
ADDED from E:\CPMA Dev\camera_app\platforms\android\app\src\main\AndroidManifest.xml:6:9-11:20
	android:label
		ADDED from E:\CPMA Dev\camera_app\platforms\android\app\src\main\AndroidManifest.xml:6:97-134
	android:launchMode
		ADDED from E:\CPMA Dev\camera_app\platforms\android\app\src\main\AndroidManifest.xml:6:135-165
	android:windowSoftInputMode
		ADDED from E:\CPMA Dev\camera_app\platforms\android\app\src\main\AndroidManifest.xml:6:257-299
	android:configChanges
		ADDED from E:\CPMA Dev\camera_app\platforms\android\app\src\main\AndroidManifest.xml:6:19-96
	android:theme
		ADDED from E:\CPMA Dev\camera_app\platforms\android\app\src\main\AndroidManifest.xml:6:194-256
	android:name
		ADDED from E:\CPMA Dev\camera_app\platforms\android\app\src\main\AndroidManifest.xml:6:166-193
intent-filter#android.intent.action.MAIN+android.intent.category.LAUNCHER
ADDED from E:\CPMA Dev\camera_app\platforms\android\app\src\main\AndroidManifest.xml:7:13-10:29
	android:label
		ADDED from E:\CPMA Dev\camera_app\platforms\android\app\src\main\AndroidManifest.xml:7:28-65
action#android.intent.action.MAIN
ADDED from E:\CPMA Dev\camera_app\platforms\android\app\src\main\AndroidManifest.xml:8:17-69
	android:name
		ADDED from E:\CPMA Dev\camera_app\platforms\android\app\src\main\AndroidManifest.xml:8:25-66
category#android.intent.category.LAUNCHER
ADDED from E:\CPMA Dev\camera_app\platforms\android\app\src\main\AndroidManifest.xml:9:17-77
	android:name
		ADDED from E:\CPMA Dev\camera_app\platforms\android\app\src\main\AndroidManifest.xml:9:27-74
uses-sdk
ADDED from E:\CPMA Dev\camera_app\platforms\android\app\src\main\AndroidManifest.xml:16:5-74
MERGED from [com.android.support:support-v4:24.1.1] C:\Users\Asppire 5742\.gradle\caches\transforms-1\files-1.1\support-v4-24.1.1.aar\ccccff249035db4f6a0ea8e1916bdb12\AndroidManifest.xml:21:5-23:54
MERGED from [com.android.support:support-v4:24.1.1] C:\Users\Asppire 5742\.gradle\caches\transforms-1\files-1.1\support-v4-24.1.1.aar\ccccff249035db4f6a0ea8e1916bdb12\AndroidManifest.xml:21:5-23:54
MERGED from [:CordovaLib] E:\CPMA Dev\camera_app\platforms\android\CordovaLib\build\intermediates\manifests\full\debug\AndroidManifest.xml:25:5-44
MERGED from [:CordovaLib] E:\CPMA Dev\camera_app\platforms\android\CordovaLib\build\intermediates\manifests\full\debug\AndroidManifest.xml:25:5-44
	tools:overrideLibrary
		ADDED from [com.android.support:support-v4:24.1.1] C:\Users\Asppire 5742\.gradle\caches\transforms-1\files-1.1\support-v4-24.1.1.aar\ccccff249035db4f6a0ea8e1916bdb12\AndroidManifest.xml:23:9-51
	android:targetSdkVersion
		ADDED from E:\CPMA Dev\camera_app\platforms\android\app\src\main\AndroidManifest.xml:16:42-71
	android:minSdkVersion
		ADDED from E:\CPMA Dev\camera_app\platforms\android\app\src\main\AndroidManifest.xml:16:15-41
uses-permission#android.permission.WRITE_EXTERNAL_STORAGE
ADDED from E:\CPMA Dev\camera_app\platforms\android\app\src\main\AndroidManifest.xml:17:5-81
	android:name
		ADDED from E:\CPMA Dev\camera_app\platforms\android\app\src\main\AndroidManifest.xml:17:22-78
meta-data#android.support.FILE_PROVIDER_PATHS
ADDED from E:\CPMA Dev\camera_app\platforms\android\app\src\main\AndroidManifest.xml:13:13-116
	android:resource
		ADDED from E:\CPMA Dev\camera_app\platforms\android\app\src\main\AndroidManifest.xml:13:75-113
	android:name
		ADDED from E:\CPMA Dev\camera_app\platforms\android\app\src\main\AndroidManifest.xml:13:24-74
